Introduction to R
…
# read the data into R, name it district_data
district_data <- read_dta("data/districtdata2020_compatible.dta")
```

For this to work, you need to tell R the right "path" to the data file. The place R starts looking for files is called the *working directory*. You can control where R looks in a number of ways.

---

```r
# look at the data
district_data
```

```
## # A tibble: 923 x 4
##    colgrad income countyid expend
##      <dbl>  <dbl>    <dbl>  <dbl>
##  1   29.5   60109      100  3394.
##  2   22.1   74984      200  4086.
##  3   29.4   44975      300  3237.
##  4   16.4   35178      400  2439.
##  5   16.6   39957      500  2595.
##  6   15.4   35059      600  2444.
##  7   20.6   50148      700  3259.
##  8   31.6   49996      800  3104.
##  9   15.9   19931      900  1593.
## 10    6.91  35139     1000  2769.
## # … with 913 more rows
```
…
